module gitlab.com/otus-go-hw/homework-15

go 1.13

require (
	github.com/heetch/confita v0.9.0
	github.com/konsorten/go-windows-terminal-sequences v1.0.2 // indirect
	github.com/sirupsen/logrus v1.4.2
	github.com/spf13/pflag v1.0.5
	golang.org/x/sys v0.0.0-20200223170610-d5e6a3e2c0ae // indirect
)
